{
  "href": "https://api.spotify.com/v1/me/tracks?offset=0&limit=2",
  "items": [
    {
      "added_at": "2025-10-11T19:11:27Z",
      "track": {
        "album": {
          "album_type": "album",
          "artists": [
            {
              "external_urls": {
                "spotify": "https://open.spotify.com/artist/0pkLgeB9j465x1QB2kRoy4"
              },
              "href": "https://api.spotify.com/v1/artists/0pkLgeB9j465x1QB2kRoy4",
              "id": "0pkLgeB9j465x1QB2kRoy4",
              "name": "HAAi",
              "type": "artist",
              "uri": "spotify:artist:0pkLgeB9j465x1QB2kRoy4"
            }
          ],
          "available_markets": [
            "AR",
            "AU",
            "AT",
            "BE",
            "BO",
            "BR",
            "BG",
            "CL",
            "CO",
            "CR",
            "CY",
            "CZ",
            "DK",
            "DO",
            "DE",
            "EC",
            "EE",
            "SV",
            "FI",
            "FR",
            "GR",
            "GT",
            "HN",
            "HK",
            "HU",
            "IS",
            "IE",
            "IT",
            "LV",
            "LT",
            "LU",
            "MY",
            "MT",
            "MX",
            "NL",
            "NZ",
            "NI",
            "NO",
            "PA",
            "PY",
            "PE",
            "PH",
            "PL",
            "PT",
            "SG",
            "SK",
            "ES",
            "SE",
            "CH",
            "TW",
            "TR",
            "UY",
            "GB",
            "AD",
            "LI",
            "MC",
            "ID",
            "TH",
            "VN",
            "RO",
            "ZA",
            "SA",
            "AE",
            "BH",
            "QA",
            "OM",
            "KW",
            "EG",
            "MA",
            "DZ",
            "TN",
            "LB",
            "JO",
            "PS",
            "IN",
            "BY",
            "KZ",
            "MD",
            "UA",
            "AL",
            "BA",
            "HR",
            "ME",
            "MK",
            "RS",
            "SI",
            "KR",
            "BD",
            "PK",
            "LK",
            "GH",
            "KE",
            "NG",
            "TZ",
            "UG",
            "AG",
            "AM",
            "BS",
            "BB",
            "BZ",
            "BT",
            "BW",
            "BF",
            "CV",
            "CW",
            "DM",
            "FJ",
            "GM",
            "GE",
            "GD",
            "GW",
            "GY",
            "HT",
            "JM",
            "KI",
            "LS",
            "LR",
            "MW",
            "MV",
            "ML",
            "MH",
            "FM",
            "NA",
            "NR",
            "NE",
            "PW",
            "PG",
            "WS",
            "SM",
            "ST",
            "SN",
            "SC",
            "SL",
            "SB",
            "KN",
            "LC",
            "VC",
            "SR",
            "TL",
            "TO",
            "TT",
            "TV",
            "VU",
            "AZ",
            "BN",
            "BI",
            "KH",
            "CM",
            "TD",
            "KM",
            "GQ",
            "SZ",
            "GA",
            "GN",
            "KG",
            "LA",
            "MO",
            "MR",
            "MN",
            "NP",
            "RW",
            "TG",
            "UZ",
            "ZW",
            "BJ",
            "MG",
            "MU",
            "MZ",
            "AO",
            "CI",
            "DJ",
            "ZM",
            "CD",
            "CG",
            "IQ",
            "LY",
            "TJ",
            "VE",
            "ET",
            "XK"
          ],
          "external_urls": {
            "spotify": "https://open.spotify.com/album/0iIR2PTnqaYmsfIadlObCe"
          },
          "href": "https://api.spotify.com/v1/albums/0iIR2PTnqaYmsfIadlObCe",
          "id": "0iIR2PTnqaYmsfIadlObCe",
          "images": [
            {
              "height": 640,
              "width": 640,
              "url": "https://i.scdn.co/image/ab67616d0000b273d395df13ca2fc10cba788c50"
            },
            {
              "height": 300,
              "width": 300,
              "url": "https://i.scdn.co/image/ab67616d00001e02d395df13ca2fc10cba788c50"
            },
            {
              "height": 64,
              "width": 64,
              "url": "https://i.scdn.co/image/ab67616d00004851d395df13ca2fc10cba788c50"
            }
          ],
          "is_playable": true,
          "name": "HUMANiSE",
          "release_date": "2025-10-10",
          "release_date_precision": "day",
          "total_tracks": 17,
          "type": "album",
          "uri": "spotify:album:0iIR2PTnqaYmsfIadlObCe"
        },
        "artists": [
          {
            "external_urls": {
              "spotify": "https://open.spotify.com/artist/0pkLgeB9j465x1QB2kRoy4"
            },
            "href": "https://api.spotify.com/v1/artists/0pkLgeB9j465x1QB2kRoy4",
            "id": "0pkLgeB9j465x1QB2kRoy4",
            "name": "HAAi",
            "type": "artist",
            "uri": "spotify:artist:0pkLgeB9j465x1QB2kRoy4"
          },
          {
            "external_urls": {
              "spotify": "https://open.spotify.com/artist/6zclVXoEfp3nFq4dOgqgOX"
            },
            "href": "https://api.spotify.com/v1/artists/6zclVXoEfp3nFq4dOgqgOX",
            "id": "6zclVXoEfp3nFq4dOgqgOX",
            "name": "Alexis Taylor",
            "type": "artist",
            "uri": "spotify:artist:6zclVXoEfp3nFq4dOgqgOX"
          },
          {
            "external_urls": {
              "spotify": "https://open.spotify.com/artist/2vHCmNtVE5TAEgVn024QTF"
            },
            "href": "https://api.spotify.com/v1/artists/2vHCmNtVE5TAEgVn024QTF",
            "id": "2vHCmNtVE5TAEgVn024QTF",
            "name": "IL\u0100",
            "type": "artist",
            "uri": "spotify:artist:2vHCmNtVE5TAEgVn024QTF"
          },
          {
            "external_urls": {
              "spotify": "https://open.spotify.com/artist/6WOjBUzx8rMrwCdVtU4WVN"
            },
            "href": "https://api.spotify.com/v1/artists/6WOjBUzx8rMrwCdVtU4WVN",
            "id": "6WOjBUzx8rMrwCdVtU4WVN",
            "name": "Trans Voices",
            "type": "artist",
            "uri": "spotify:artist:6WOjBUzx8rMrwCdVtU4WVN"
          }
        ],
        "available_markets": [
          "AR",
          "AU",
          "AT",
          "BE",
          "BO",
          "BR",
          "BG",
          "CL",
          "CO",
          "CR",
          "CY",
          "CZ",
          "DK",
          "DO",
          "DE",
          "EC",
          "EE",
          "SV",
          "FI",
          "FR",
          "GR",
          "GT",
          "HN",
          "HK",
          "HU",
          "IS",
          "IE",
          "IT",
          "LV",
          "LT",
          "LU",
          "MY",
          "MT",
          "MX",
          "NL",
          "NZ",
          "NI",
          "NO",
          "PA",
          "PY",
          "PE",
          "PH",
          "PL",
          "PT",
          "SG",
          "SK",
          "ES",
          "SE",
          "CH",
          "TW",
          "TR",
          "UY",
          "GB",
          "AD",
          "LI",
          "MC",
          "ID",
          "TH",
          "VN",
          "RO",
          "ZA",
          "SA",
          "AE",
          "BH",
          "QA",
          "OM",
          "KW",
          "EG",
          "MA",
          "DZ",
          "TN",
          "LB",
          "JO",
          "PS",
          "IN",
          "BY",
          "KZ",
          "MD",
          "UA",
          "AL",
          "BA",
          "HR",
          "ME",
          "MK",
          "RS",
          "SI",
          "KR",
          "BD",
          "PK",
          "LK",
          "GH",
          "KE",
          "NG",
          "TZ",
          "UG",
          "AG",
          "AM",
          "BS",
          "BB",
          "BZ",
          "BT",
          "BW",
          "BF",
          "CV",
          "CW",
          "DM",
          "FJ",
          "GM",
          "GE",
          "GD",
          "GW",
          "GY",
          "HT",
          "JM",
          "KI",
          "LS",
          "LR",
          "MW",
          "MV",
          "ML",
          "MH",
          "FM",
          "NA",
          "NR",
          "NE",
          "PW",
          "PG",
          "WS",
          "SM",
          "ST",
          "SN",
          "SC",
          "SL",
          "SB",
          "KN",
          "LC",
          "VC",
          "SR",
          "TL",
          "TO",
          "TT",
          "TV",
          "VU",
          "AZ",
          "BN",
          "BI",
          "KH",
          "CM",
          "TD",
          "KM",
          "GQ",
          "SZ",
          "GA",
          "GN",
          "KG",
          "LA",
          "MO",
          "MR",
          "MN",
          "NP",
          "RW",
          "TG",
          "UZ",
          "ZW",
          "BJ",
          "MG",
          "MU",
          "MZ",
          "AO",
          "CI",
          "DJ",
          "ZM",
          "CD",
          "CG",
          "IQ",
          "LY",
          "TJ",
          "VE",
          "ET",
          "XK"
        ],
        "disc_number": 1,
        "duration_ms": 319361,
        "explicit": false,
        "external_ids": {
          "isrc": "GBR8R2500082"
        },
        "external_urls": {
          "spotify": "https://open.spotify.com/track/2YgoyYbYRuEGVe7tHNmMyr"
        },
        "href": "https://api.spotify.com/v1/tracks/2YgoyYbYRuEGVe7tHNmMyr",
        "id": "2YgoyYbYRuEGVe7tHNmMyr",
        "is_local": false,
        "is_playable": true,
        "name": "New Euphoria",
        "popularity": 26,
        "preview_url": null,
        "track_number": 16,
        "type": "track",
        "uri": "spotify:track:2YgoyYbYRuEGVe7tHNmMyr"
      }
    },
    {
      "added_at": "2025-07-03T20:20:43Z",
      "track": {
        "album": {
          "album_type": "album",
          "artists": [
            {
              "external_urls": {
                "spotify": "https://open.spotify.com/artist/3qOGTt4eTeEkCn3efhAGu2"
              },
              "href": "https://api.spotify.com/v1/artists/3qOGTt4eTeEkCn3efhAGu2",
              "id": "3qOGTt4eTeEkCn3efhAGu2",
              "name": "Nick Le\u00f3n",
              "type": "artist",
              "uri": "spotify:artist:3qOGTt4eTeEkCn3efhAGu2"
            }
          ],
          "available_markets": [
            "AR",
            "AU",
            "AT",
            "BE",
            "BO",
            "BR",
            "BG",
            "CA",
            "CL",
            "CO",
            "CR",
            "CY",
            "CZ",
            "DK",
            "DO",
            "DE",
            "EC",
            "EE",
            "SV",
            "FI",
            "FR",
            "GR",
            "GT",
            "HN",
            "HK",
            "HU",
            "IS",
            "IE",
            "IT",
            "LV",
            "LT",
            "LU",
            "MY",
            "MT",
            "MX",
            "NL",
            "NZ",
            "NI",
            "NO",
            "PA",
            "PY",
            "PE",
            "PH",
            "PL",
            "PT",
            "SG",
            "SK",
            "ES",
            "SE",
            "CH",
            "TW",
            "TR",
            "UY",
            "US",
            "GB",
            "AD",
            "LI",
            "MC",
            "ID",
            "JP",
            "TH",
            "VN",
            "RO",
            "ZA",
            "SA",
            "AE",
            "BH",
            "QA",
            "OM",
            "KW",
            "EG",
            "MA",
            "DZ",
            "TN",
            "LB",
            "JO",
            "PS",
            "IN",
            "BY",
            "KZ",
            "MD",
            "UA",
            "AL",
            "BA",
            "HR",
            "ME",
            "MK",
            "RS",
            "SI",
            "KR",
            "BD",
            "PK",
            "LK",
            "GH",
            "KE",
            "NG",
            "TZ",
            "UG",
            "AG",
            "AM",
            "BS",
            "BB",
            "BZ",
            "BT",
            "BW",
            "BF",
            "CV",
            "CW",
            "DM",
            "FJ",
            "GM",
            "GE",
            "GD",
            "GW",
            "GY",
            "HT",
            "JM",
            "KI",
            "LS",
            "LR",
            "MW",
            "MV",
            "ML",
            "MH",
            "FM",
            "NA",
            "NR",
            "NE",
            "PW",
            "PG",
            "PR",
            "WS",
            "SM",
            "ST",
            "SN",
            "SC",
            "SL",
            "SB",
            "KN",
            "LC",
            "VC",
            "SR",
            "TL",
            "TO",
            "TT",
            "TV",
            "VU",
            "AZ",
            "BN",
            "BI",
            "KH",
            "CM",
            "TD",
            "KM",
            "GQ",
            "SZ",
            "GA",
            "GN",
            "KG",
            "LA",
            "MO",
            "MR",
            "MN",
            "NP",
            "RW",
            "TG",
            "UZ",
            "ZW",
            "BJ",
            "MG",
            "MU",
            "MZ",
            "AO",
            "CI",
            "DJ",
            "ZM",
            "CD",
            "CG",
            "IQ",
            "LY",
            "TJ",
            "VE",
            "ET",
            "XK"
          ],
          "external_urls": {
            "spotify": "https://open.spotify.com/album/2nzRzw1h5j5Kr6QTjlR3es"
          },
          "href": "https://api.spotify.com/v1/albums/2nzRzw1h5j5Kr6QTjlR3es",
          "id": "2nzRzw1h5j5Kr6QTjlR3es",
          "images": [
            {
              "height": 640,
              "width": 640,
              "url": "https://i.scdn.co/image/ab67616d0000b27350b1eeb7b09a6a9f381bb6d5"
            },
            {
              "height": 300,
              "width": 300,
              "url": "https://i.scdn.co/image/ab67616d00001e0250b1eeb7b09a6a9f381bb6d5"
            },
            {
              "height": 64,
              "width": 64,
              "url": "https://i.scdn.co/image/ab67616d0000485150b1eeb7b09a6a9f381bb6d5"
            }
          ],
          "is_playable": true,
          "name": "A Tropical Entropy",
          "release_date": "2025-06-27",
          "release_date_precision": "day",
          "total_tracks": 11,
          "type": "album",
          "uri": "spotify:album:2nzRzw1h5j5Kr6QTjlR3es"
        },
        "artists": [
          {
            "external_urls": {
              "spotify": "https://open.spotify.com/artist/3qOGTt4eTeEkCn3efhAGu2"
            },
            "href": "https://api.spotify.com/v1/artists/3qOGTt4eTeEkCn3efhAGu2",
            "id": "3qOGTt4eTeEkCn3efhAGu2",
            "name": "Nick Le\u00f3n",
            "type": "artist",
            "uri": "spotify:artist:3qOGTt4eTeEkCn3efhAGu2"
          },
          {
            "external_urls": {
              "spotify": "https://open.spotify.com/artist/4rdJkXHNrMgowlwUdQAg8T"
            },
            "href": "https://api.spotify.com/v1/artists/4rdJkXHNrMgowlwUdQAg8T",
            "id": "4rdJkXHNrMgowlwUdQAg8T",
            "name": "Ela Minus",
            "type": "artist",
            "uri": "spotify:artist:4rdJkXHNrMgowlwUdQAg8T"
          }
        ],
        "available_markets": [
          "AR",
          "AU",
          "AT",
          "BE",
          "BO",
          "BR",
          "BG",
          "CA",
          "CL",
          "CO",
          "CR",
          "CY",
          "CZ",
          "DK",
          "DO",
          "DE",
          "EC",
          "EE",
          "SV",
          "FI",
          "FR",
          "GR",
          "GT",
          "HN",
          "HK",
          "HU",
          "IS",
          "IE",
          "IT",
          "LV",
          "LT",
          "LU",
          "MY",
          "MT",
          "MX",
          "NL",
          "NZ",
          "NI",
          "NO",
          "PA",
          "PY",
          "PE",
          "PH",
          "PL",
          "PT",
          "SG",
          "SK",
          "ES",
          "SE",
          "CH",
          "TW",
          "TR",
          "UY",
          "US",
          "GB",
          "AD",
          "LI",
          "MC",
          "ID",
          "JP",
          "TH",
          "VN",
          "RO",
          "ZA",
          "SA",
          "AE",
          "BH",
          "QA",
          "OM",
          "KW",
          "EG",
          "MA",
          "DZ",
          "TN",
          "LB",
          "JO",
          "PS",
          "IN",
          "BY",
          "KZ",
          "MD",
          "UA",
          "AL",
          "BA",
          "HR",
          "ME",
          "MK",
          "RS",
          "SI",
          "KR",
          "BD",
          "PK",
          "LK",
          "GH",
          "KE",
          "NG",
          "TZ",
          "UG",
          "AG",
          "AM",
          "BS",
          "BB",
          "BZ",
          "BT",
          "BW",
          "BF",
          "CV",
          "CW",
          "DM",
          "FJ",
          "GM",
          "GE",
          "GD",
          "GW",
          "GY",
          "HT",
          "JM",
          "KI",
          "LS",
          "LR",
          "MW",
          "MV",
          "ML",
          "MH",
          "FM",
          "NA",
          "NR",
          "NE",
          "PW",
          "PG",
          "PR",
          "WS",
          "SM",
          "ST",
          "SN",
          "SC",
          "SL",
          "SB",
          "KN",
          "LC",
          "VC",
          "SR",
          "TL",
          "TO",
          "TT",
          "TV",
          "VU",
          "AZ",
          "BN",
          "BI",
          "KH",
          "CM",
          "TD",
          "KM",
          "GQ",
          "SZ",
          "GA",
          "GN",
          "KG",
          "LA",
          "MO",
          "MR",
          "MN",
          "NP",
          "RW",
          "TG",
          "UZ",
          "ZW",
          "BJ",
          "MG",
          "MU",
          "MZ",
          "AO",
          "CI",
          "DJ",
          "ZM",
          "CD",
          "CG",
          "IQ",
          "LY",
          "TJ",
          "VE",
          "ET",
          "XK"
        ],
        "disc_number": 1,
        "duration_ms": 248730,
        "explicit": false,
        "external_ids": {
          "isrc": "COAB11900244"
        },
        "external_urls": {
          "spotify": "https://open.spotify.com/track/69XAj1JQEIsziJbLR8B7AD"
        },
        "href": "https://api.spotify.com/v1/tracks/69XAj1JQEIsziJbLR8B7AD",
        "id": "69XAj1JQEIsziJbLR8B7AD",
        "is_local": false,
        "is_playable": true,
        "name": "Ghost Orchid",
        "popularity": 37,
        "preview_url": null,
        "track_number": 2,
        "type": "track",
        "uri": "spotify:track:69XAj1JQEIsziJbLR8B7AD"
      }
    }
  ],
  "limit": 2,
  "next": "https://api.spotify.com/v1/me/tracks?offset=2&limit=2",
  "offset": 0,
  "previous": null,
  "total": 2273
}